…
```

create features
Now we can start adding steps onto our recipe using the pipe operator. Perhaps it is reasonable for the date of the flight to have an effect on the likelihood of a late arrival. A little bit of feature engineering might go a long way to improving our model. How should the date be encoded into the model? The date column has an R date object so including that column “as is” will mean that the model will convert it to a numeric format equal to the number of days after a reference date:
```{r}
flight_data %>% 
  distinct(date) %>% 
  mutate(numeric_date = as.numeric(date)) 
#> # A tibble: 364 × 2
#>   date       numeric_date
#>   <date>            <dbl>
#> 1 2013-01-01        15706
#> 2 2013-01-02        15707
#> 3 2013-01-03        15708
#> 4 2013-01-04        15709
#> 5 2013-01-05        15710
#> # … with 359 more rows
…
```{r}
flights_fit <- 
  flights_wflow %>% 
  fit(data = train_data)

```

This object has the finalized recipe and fitted model objects inside. You may want to extract the model or recipe objects from the workflow. To do this, you can use the helper functions extract_fit_parsnip() and extract_recipe(). For example, here we pull the fitted model object then use the broom::tidy() function to get a tidy tibble of model coefficients:

```{r}
flights_fit %>% 
  extract_fit_parsnip() %>% 
  tidy()
#> # A tibble: 157 × 5
#>   term                estimate std.error statistic  p.value
#>   <chr>                  <dbl>     <dbl>     <dbl>    <dbl>
#> 1 (Intercept)          7.28    2.73           2.67 7.64e- 3
#> 2 dep_time            -0.00166 0.0000141   -118.   0       
#> 3 air_time            -0.0440  0.000563     -78.2  0       
#> 4 distance             0.00507 0.00150        3.38 7.32e- 4
#> 5 date_USChristmasDay  1.33    0.177          7.49 6.93e-14
#> # … with 152 more rows
…
Our goal was to predict whether a plane arrives more than 30 minutes late. We have just:

Built the model (lr_mod),

Created a preprocessing recipe (flights_rec),

Bundled the model and recipe (flights_wflow), and

Trained our workflow using a single call to fit().

The next step is to use the trained workflow (flights_fit) to predict with the unseen test data, which we will do with a single call to predict(). The predict() method applies the recipe to the new data, then passes them to the fitted model.

```{r}
predict(flights_fit, test_data)
#> # A tibble: 81,455 × 1
#>   .pred_class
#>   <fct>      
#> 1 on_time    
#> 2 on_time    
#> 3 on_time    
#> 4 on_time    
#> 5 on_time    
#> # … with 81,450 more rows

```


Because our outcome variable here is a factor, the output from predict() returns the predicted class: late versus on_time. But, let’s say we want the predicted class probabilities for each flight instead. To return those, we can specify type = "prob" when we use predict() or use augment() with the model plus test data to save them together:

```{r}
flights_aug <- 
  augment(flights_fit, test_data)

# The data look like: 
flights_aug %>%
  select(arr_delay, time_hour, flight, .pred_class, .pred_on_time)
#> # A tibble: 81,455 × 5
#>   arr_delay time_hour           flight .pred_class .pred_on_time
#>   <fct>     <dttm>               <int> <fct>               <dbl>
#> 1 on_time   2013-01-01 05:00:00   1545 on_time             0.945
#> 2 on_time   2013-01-01 05:00:00   1714 on_time             0.949
#> 3 on_time   2013-01-01 06:00:00    507 on_time             0.964
#> 4 on_time   2013-01-01 06:00:00   5708 on_time             0.961
#> 5 on_time   2013-01-01 06:00:00     71 on_time             0.962
#> # … with 81,450 more rows
…
## evaluate your model with resampling 

So far, we have built a model and preprocessed data with a recipe. We also introduced workflows as a way to bundle a parsnip model and recipe together. Once we have a model trained, we need a way to measure how well that model predicts new data. This tutorial explains how to characterize model performance based on resampling statistics.
```{r}
library(tidymodels) # for the rsample package, along with the rest of tidymodels

# Helper packages
library(modeldata)  # for the cells data

```

```{r}
data(cells, package = "modeldata")
cells
#> # A tibble: 2,019 × 58
#>   case  class angle_ch_1 area_ch_1 avg_inten_ch_1 avg_inten_ch_2 avg_inten_ch_3
#>   <fct> <fct>      <dbl>     <int>          <dbl>          <dbl>          <dbl>
#> 1 Test  PS        143.         185           15.7           4.95           9.55
#> 2 Train PS        134.         819           31.9         207.            69.9 
#> 3 Train WS        107.         431           28.0         116.            63.9 
#> 4 Train PS         69.2        298           19.5         102.            28.2 
#> 5 Test  PS          2.89       285           24.3         112.            20.5 
#> # … with 2,014 more rows, and 51 more variables: avg_inten_ch_4 <dbl>,
#> #   convex_hull_area_ratio_ch_1 <dbl>, convex_hull_perim_ratio_ch_1 <dbl>,
#> #   diff_inten_density_ch_1 <dbl>, diff_inten_density_ch_3 <dbl>, …

```

```{r}
cells
#> # A tibble: 2,019 × 58
#>   case  class angle_ch_1 area_ch_1 avg_inten_ch_1 avg_inten_ch_2 avg_inten_ch_3
#>   <fct> <fct>      <dbl>     <int>          <dbl>          <dbl>          <dbl>
#> 1 Test  PS        143.         185           15.7           4.95           9.55
#> 2 Train PS        134.         819           31.9         207.            69.9 
#> 3 Train WS        107.         431           28.0         116.            63.9 
#> 4 Train PS         69.2        298           19.5         102.            28.2 
#> 5 Test  PS          2.89       285           24.3         112.            20.5 
#> # … with 2,014 more rows, and 51 more variables: avg_inten_ch_4 <dbl>,
#> #   convex_hull_area_ratio_ch_1 <dbl>, convex_hull_perim_ratio_ch_1 <dbl>,
#> #   diff_inten_density_ch_1 <dbl>, diff_inten_density_ch_3 <dbl>, …
…
```{r}
library(tidymodels)  # for the tune package, along with the rest of tidymodels

# Helper packages
library(rpart.plot)  # for visualizing a decision tree
library(vip)         # for variable importance plots

```
same cell data

```{r}
data(cells, package = "modeldata")
cells
#> # A tibble: 2,019 × 58
#>   case  class angle_ch_1 area_ch_1 avg_inten_ch_1 avg_inten_ch_2 avg_inten_ch_3
#>   <fct> <fct>      <dbl>     <int>          <dbl>          <dbl>          <dbl>
#> 1 Test  PS        143.         185           15.7           4.95           9.55
#> 2 Train PS        134.         819           31.9         207.            69.9 
#> 3 Train WS        107.         431           28.0         116.            63.9 
#> 4 Train PS         69.2        298           19.5         102.            28.2 
#> 5 Test  PS          2.89       285           24.3         112.            20.5 
#> # … with 2,014 more rows, and 51 more variables: avg_inten_ch_4 <dbl>,
#> #   convex_hull_area_ratio_ch_1 <dbl>, convex_hull_perim_ratio_ch_1 <dbl>,
#> #   diff_inten_density_ch_1 <dbl>, diff_inten_density_ch_3 <dbl>, …
…
We can’t train this specification on a single data set (such as the entire training set) and learn what the hyperparameter values should be, but we can train many models using resampled data and see which models turn out best. We can create a regular grid of values to try using some convenience functions for each hyperparameter:

```{r}
tree_grid <- grid_regular(cost_complexity(),
                          tree_depth(),
                          levels = 5)

```

The function grid_regular() is from the dials package. It chooses sensible values to try for each hyperparameter; here, we asked for 5 of each. Since we have two to tune, grid_regular() returns 5 [Math Processing Error] 5 = 25 different possible tuning combinations to try in a tidy tibble format.

```{r}
tree_grid
#> # A tibble: 25 × 2
#>    cost_complexity tree_depth
#>              <dbl>      <int>
#>  1    0.0000000001          1
#>  2    0.0000000178          1
#>  3    0.00000316            1
#>  4    0.000562              1
#>  5    0.1                   1
#>  6    0.0000000001          4
#>  7    0.0000000178          4
#>  8    0.00000316            4
#>  9    0.000562              4
#> 10    0.1                   4
#> # … with 15 more rows
…
```

Once we have our tuning results, we can both explore them through visualization and then select the best result. The function collect_metrics() gives us a tidy tibble with all the results. We had 25 candidate models and two metrics, accuracy and roc_auc, and we get a row for each .metric and model.

```{r}
tree_res %>% 
  collect_metrics()
#> # A tibble: 50 × 8
#>    cost_complexity tree_depth .metric  .estimator  mean     n std_err .config   
#>              <dbl>      <int> <chr>    <chr>      <dbl> <int>   <dbl> <chr>     
#>  1    0.0000000001          1 accuracy binary     0.732    10  0.0148 Preproces…
#>  2    0.0000000001          1 roc_auc  binary     0.777    10  0.0107 Preproces…
#>  3    0.0000000178          1 accuracy binary     0.732    10  0.0148 Preproces…
#>  4    0.0000000178          1 roc_auc  binary     0.777    10  0.0107 Preproces…
#>  5    0.00000316            1 accuracy binary     0.732    10  0.0148 Preproces…
#>  6    0.00000316            1 roc_auc  binary     0.777    10  0.0107 Preproces…
#>  7    0.000562              1 accuracy binary     0.732    10  0.0148 Preproces…
#>  8    0.000562              1 roc_auc  binary     0.777    10  0.0107 Preproces…
#>  9    0.1                   1 accuracy binary     0.732    10  0.0148 Preproces…
#> 10    0.1                   1 roc_auc  binary     0.777    10  0.0107 Preproces…
#> # … with 40 more rows
…
```

To calculate the data needed to plot the ROC curve, we use collect_predictions(). This is only possible after tuning with control_grid(save_pred = TRUE). In the output, you can see the two columns that hold our class probabilities for predicting hotel stays including and not including children.

```{r}
rf_res %>% 
  collect_predictions()
#> # A tibble: 187,500 × 8
#>   id         .pred_children .pred_none  .row  mtry min_n children .config       
#>   <chr>               <dbl>      <dbl> <int> <int> <int> <fct>    <chr>         
#> 1 validation         0.152       0.848    13    12     7 none     Preprocessor1…
#> 2 validation         0.0302      0.970    20    12     7 none     Preprocessor1…
#> 3 validation         0.513       0.487    22    12     7 children Preprocessor1…
#> 4 validation         0.0103      0.990    23    12     7 none     Preprocessor1…
#> 5 validation         0.0111      0.989    31    12     7 none     Preprocessor1…
#> # … with 187,495 more rows
…
